<?xml version="1.0" encoding="utf-8"?>
<!-- Generator: Adobe Illustrator 16.0.0, SVG Export Plug-In . SVG Version: 6.00 Build 0)  -->
<!DOCTYPE svg PUBLIC "-//W3C//DTD SVG 1.1//EN" "http://www.w3.org/Graphics/SVG/1.1/DTD/svg11.dtd">
<svg version="1.1" id="Layer_1" xmlns="http://www.w3.org/2000/svg" xmlns:xlink="http://www.w3.org/1999/xlink" x="0px" y="0px"
	 width="73.605px" height="59.201px" viewBox="0 0 73.605 59.201" enable-background="new 0 0 73.605 59.201" xml:space="preserve">
<g>
	<defs>
		<rect id="SVGID_1_" width="73.606" height="59.201"/>
	</defs>
	<clipPath id="SVGID_2_">
		<use xlink:href="#SVGID_1_"  overflow="visible"/>
	</clipPath>
	<path clip-path="url(#SVGID_2_)" fill="#444444" d="M71.579,0.138C70.203,0.622,2.295,24.554,0.955,25.026
		c-1.136,0.4-1.388,1.38-0.04,1.916c1.604,0.644,15.184,6.084,15.184,6.084l9,3.604c0,0,43.353-31.832,43.937-32.264
		c0.592-0.432,1.271,0.38,0.844,0.844c-0.428,0.468-31.484,34.052-31.484,34.052v0.008l-1.808,2.012l2.396,1.288
		c0,0,18.601,10.016,19.929,10.728c1.163,0.624,2.672,0.108,3.008-1.336c0.396-1.704,11.38-49.043,11.624-50.1
		C73.858,0.49,72.951-0.346,71.579,0.138 M25.019,58.25c0,0.984,0.556,1.261,1.324,0.564c1.004-0.916,11.4-10.244,11.4-10.244
		l-12.725-6.576V58.25z"/>
</g>
</svg>
